Sección 13 Ejemplos de inferencia bayesiana en Stan I | Fundamentos de Estadística con Remuestreo
…
Si no hay problemas, podemos ver el resumen:

resumen <- ajuste$summary()
resumen

## # A tibble: 23 × 10
##    variable   mean median    sd   mad     q5    q95  rhat ess_bulk ess_tail
##    <chr>     <dbl>  <dbl> <dbl> <dbl>  <dbl>  <dbl> <dbl>    <dbl>    <dbl>
##  1 lp__     -46.2  -45.8   1.05 0.753 -48.2  -45.2   1.00    6584.    8196.
##  2 mu       176.   176.    1.33 1.30  174.   178.    1.00   10005.    9087.
##  3 sigma      6.71   6.55  1.18 1.09    5.09   8.86  1.00    9927.    8352.
##  4 y_sim[1] 176.   176.    6.94 6.66  164.   187.    1.00   14414.   15187.
##  5 y_sim[2] 176.   176.    6.98 6.64  164.   187.    1.00   15189.   15317.
##  6 y_sim[3] 176.   176.    6.90 6.60  165.   187.    1.00   15497.   15454.
##  7 y_sim[4] 176.   176.    6.90 6.63  165.   187.    1.00   15421.   15051.
##  8 y_sim[5] 176.   176.    6.89 6.69  165.   187.    1.00   14356.   15532.
##  9 y_sim[6] 176.   176.    6.98 6.67  164.   187.    1.00   15073.   15233.
## 10 y_sim[7] 176.   176.    6.99 6.83  164.   187.    1.00   14656.   15333.
## # ℹ 13 more rows
…
